…
Map
[`get_reply_data()`](https://edubruell.github.io/tidyllm/dev/reference/get_reply_data.md)
and
[`as_tibble()`](https://tibble.tidyverse.org/reference/as_tibble.html)
over the batch output to produce a tidy table:

``` r

document_table <- results |>
  map(get_reply_data) |>
  map_dfr(as_tibble)

document_table
## # A tibble: 24 × 9
##    Title  Authors SuggestedFilename Type  Empirics Theory MainPoint Contribution
##    <chr>  <chr>   <chr>             <chr> <chr>    <chr>  <chr>     <chr>       
##  1 A Met… Edward… 2018_Felten_etal… Rese… The pap… Theor… The pape… The primary…
##  2 The R… Alexan… 2024_Bick_etal_R… Rese… The emp… The t… The pape… The primary…
##  3 The A… Andrew… 2024_Caplin_etal… Rese… The stu… The t… AI can s… The paper c…
##  4 Large… John J… 2023_Horton_etal… Rese… The doc… The c… The pape… This resear…
##  5 The I… Sida P… 2023_Peng_etal_I… Rese… The stu… The p… The stud… This resear…
##  6 GPTs … Tyna E… 2023_Eloundou_et… Rese… The stu… The t… The intr… This paper …
##  7 Autom… Philip… 2023_Lergetporer… Rese… This st… The u… Workers … This paper …
##  8 Artif… Andrew… 2024_Green_etal_… Rese… The doc… The r… AI is tr… The primary…
##  9 The A… Andrew… 2024_Caplin_etal… Rese… The res… The s… The abil… This resear…
## 10 Autom… Daron … 2019_Acemoglu_Re… Rese… The doc… The p… The impa… The authors…
## # ℹ 14 more rows
## # ℹ 1 more variable: KeyCitations <chr>
```
…
