Generate Synthetic Data with tidyllm • tidyllm
…
Imagine for example that you are a researcher who just got contact
info for many lawyers you want to invite to a survey on automation,
provided by the bar association. You have already enriched this data
with information from web-based sources, such as advertising taglines
from law firm websites. Here is what such data could look like:

library(tidyllm)
library(tidyverse)
library(glue)

lawyers <- read_rds("lawyer_profiles.rds")
lawyers
#> # A tibble: 495 × 9
#>    first_name last_name     year_bar_admission specialization  location         
#>    <chr>      <chr>         <chr>              <chr>           <chr>            
#>  1 Solon      "Predovic"    2018               Criminal Law    Denver, CO       
#>  2 Linzy      "Gleason"     2020               Tax Law         San Francisco, CA
#>  3 Miss Amiya "Braun"       2015               Family Law      Atlanta, GA      
#>  4 Irvine     "Kerluke PhD" 2008               Corporate Law   Chicago, IL      
#>  5 Marta      "Waelchi "    2012               Healthcare Law  Boston, MA       
#>  6 Affie      "Kreiger"     2018               Criminal Law    Dallas, TX       
#>  7 Montie     "Kunze"       2002               Tax Law         San Francisco, CA
#>  8 Marleigh   "Fahey"       2015               Family Law      Miami, FL        
#>  9 Olene      "Stokes"      2012               Corporate Law   Chicago, IL      
#> 10 Sonji      "Stark "      2009               Estate Planning Boston, MA       
#> # ℹ 485 more rows
#> # ℹ 4 more variables: bar_admission_state <chr>, place_of_education <chr>,
#> #   email <chr>, advertising_tagline <chr>
…
