Classifying Texts with tidyllm • tidyllm
…
library(tidyllm)
library(tidyverse)
## Warning: package 'ggplot2' was built under R version 4.4.3
## Warning: package 'tibble' was built under R version 4.4.3
## Warning: package 'purrr' was built under R version 4.4.3
## Warning: package 'lubridate' was built under R version 4.4.3
library(glue)

occ_data <- read_rds("occupation_data.rds")
occ_data
## # A tibble: 7,000 × 2
##    respondent occupation_open                  
##         <int> <chr>                            
##  1     100019 Ops oversight and strategy       
##  2     100266 Coordinating operations          
##  3     100453 Making sure everything runs      
##  4     100532 Building and demolition          
##  5     100736 Help lawyers with cases          
##  6     100910 I sell mechanical parts          
##  7     101202 Librarian                        
##  8     101325 Operations planning and execution
##  9     101329 Bookkeeper                       
## 10     101367 Kitchen staff                    
## # ℹ 6,990 more rows
…
The approach here is: classify and manually correct a sub-sample to
build a ground truth, use that ground truth to experiment with prompts
and models on training data, then scale the winning setup to the full
dataset.

Classifying a Sub-Sample

We start by working with distinct occupation descriptions only, which
eliminates duplicates and reduces the classification workload:

distinct_occupations <- occ_data |>
  distinct(occupation = occupation_open)

print(distinct_occupations, n = 5)
## # A tibble: 2,209 × 1
##   occupation                 
##   <chr>                      
## 1 Ops oversight and strategy 
## 2 Coordinating operations    
## 3 Making sure everything runs
## 4 Building and demolition    
## 5 Help lawyers with cases    
## # ℹ 2,204 more rows

We split off a sub-sample for manual correction using
rsample:

library(rsample)
set.seed(123)

occ_split     <- initial_split(distinct_occupations, prop = 0.8)
rest_of_data  <- training(occ_split)
sub_sample    <- testing(occ_split)

print(sub_sample, n = 5)
## # A tibble: 442 × 1
##   occupation                     
##   <chr>                          
## 1 Making sure everything runs    
## 2 Bartender                      
## 3 Post-secondary health education
## 4 Food servin                    
## 5 Exectutive assistant           
## # ℹ 437 more rows
…
Optimizing Classifiers

We split the manually corrected ground truth into training and test
sets:

ground_truth <- readxl::read_xlsx("ground_truth_corrected.xlsx")

set.seed(123)
gt_split   <- initial_split(ground_truth, prop = 0.7)
train_data <- training(gt_split)
test_data  <- testing(gt_split)

print(train_data, n = 5)
## # A tibble: 309 × 3
##   occupation_open              occ2 occ_title                                   
##   <chr>                       <dbl> <chr>                                       
## 1 Computer network technician    15 Computer and Mathematical Occupations       
## 2 Educational support            25 Educational Instruction and Library Occupat…
## 3 Fine Carpentry                 47 Construction and Extraction Occupations     
## 4 Keep things organized          43 Office and Administrative Support Occupatio…
## 5 Group fitness instructor       39 Personal Care and Service Occupations       
## # ℹ 304 more rows
…
