Embedding Models in tidyllm • tidyllm
…
Let’s start by loading and exploring the data:

library(tidyverse)
library(tidyllm)
library(here)

abstracts <- read_rds("abstracts_data.rds")
#The structure of our file:
print(abstracts,width = 60)
## # A tibble: 22,960 × 8
##    year  journal  authors volume firstpage lastpage abstract
##    <chr> <chr>    <chr>   <chr>  <chr>     <chr>    <chr>   
##  1 2024  Journal… Bauer,… 22     2075      2107     This pa…
##  2 2019  The Rev… Karlan… 86     1704      1746     We use …
##  3 2022  Journal… Corset… 20     513       548      We stud…
##  4 2018  The Rev… Anagol… 85     1971      2004     We stud…
##  5 2024  America… Thores… 16     447       79       This pa…
##  6 2024  Journal… Ren, Y… 238    NA        NA       The rap…
##  7 2013  The Rev… Adhvar… 95     725       740      A key p…
##  8 2022  Econome… Brooks… 90     2187      2214     If expe…
##  9 2011  Health … Fletch… 20     553       570      We exam…
## 10 2010  Journal… Rohwed… 24     119       38       Early r…
## # ℹ 22,950 more rows
## # ℹ 1 more variable: pdf_link <chr>
…
