Structured Question Answering from PDFs • tidyllm
…
results <- read_rds("document_batch.rds")|>
  fetch_batch(openai)

We can then process the results into a table by mapping
get_reply_data() and as_tibble() over the
batch output:

docuemnt_table <- results |>
  map(get_reply_data) |>
  map_dfr(as_tibble)
  
docuemnt_table
## # A tibble: 24 × 9
##    Title  Authors SuggestedFilename Type  Empirics Theory MainPoint Contribution
##    <chr>  <chr>   <chr>             <chr> <chr>    <chr>  <chr>     <chr>       
##  1 A Met… Edward… 2018_Felten_etal… Rese… The doc… The t… The docu… This paper'…
##  2 The R… Alexan… 2024_Bick_etal_R… Rese… The pap… The f… The cent… The documen…
##  3 THE A… Andrew… 2024_Caplin_etal… Rese… The doc… The d… The cent… The paper's…
##  4 Large… John J… 2023_Horton_etal… Rese… The pap… The p… The cent… The documen…
##  5 The I… Sida P… 2023_Peng_etal_G… Rese… Conduct… Theor… The stud… This resear…
##  6 GPTs … Tyna E… 2023_Eloundou_et… Rese… The stu… The d… The cent… The paper p…
##  7 Autom… Philip… 2023_Lergetporer… Rese… The stu… The t… The docu… This resear…
##  8 Artif… Andrew… 2024_Green_etal_… Rese… The rep… The t… The cent… This docume…
##  9 THE A… Andrew… 2024_Caplin_etal… Rese… The res… The p… The docu… This docume…
## 10 Autom… Daron … 2019_Acemoglu_Re… Rese… The pap… The t… The docu… This paper …
## # ℹ 14 more rows
## # ℹ 1 more variable: KeyCitations <chr>
…
